simulation/qsim/MajorityLogic.msim.vcd
$comment
	File created using the following command:
		vcd file MajorityLogic.msim.vcd -direction
$end
$date
	Tue Aug 31 17:25:20 2021
$end
$version
	ModelSim Version 10.5b
$end
$timescale
	1ps
$end

$scope module majoritylogic_vhd_vec_tst $end
$var wire 1 ! A $end
$var wire 1 " B $end
$var wire 1 # C $end
$var wire 1 $ D $end
$var wire 1 % E $end
$var wire 1 & Y $end

$scope module i1 $end
$var wire 1 ' gnd $end
$var wire 1 ( vcc $end
$var wire 1 ) unknown $end
$var wire 1 * devoe $end
$var wire 1 + devclrn $end
$var wire 1 , devpor $end
$var wire 1 - ww_devoe $end
$var wire 1 . ww_devclrn $end
$var wire 1 / ww_devpor $end
$var wire 1 0 ww_A $end
$var wire 1 1 ww_B $end
$var wire 1 2 ww_C $end
$var wire 1 3 ww_D $end
$var wire 1 4 ww_E $end
$var wire 1 5 ww_Y $end
$var wire 1 6 \~QUARTUS_CREATED_GND~I_combout\ $end
$var wire 1 7 \B~input_o\ $end
$var wire 1 8 \A~input_o\ $end
$var wire 1 9 \E~input_o\ $end
$var wire 1 : \C~input_o\ $end
$var wire 1 ; \D~input_o\ $end
$var wire 1 < \Y~0_combout\ $end
$var wire 1 = \ALT_INV_C~input_o\ $end
$var wire 1 > \ALT_INV_B~input_o\ $end
$var wire 1 ? \ALT_INV_A~input_o\ $end
$var wire 1 @ \ALT_INV_D~input_o\ $end
$var wire 1 A \ALT_INV_E~input_o\ $end
$upscope $end
$upscope $end
$enddefinitions $end
#0
$dumpvars
0!
0"
0#
0$
0%
0&
0'
1(
x)
1*
1+
1,
1-
1.
1/
00
01
02
03
04
05
x6
07
08
09
0:
0;
0<
1=
1>
1?
1@
1A
$end
#10000
1%
14
19
0A
#20000
0%
1$
04
13
1;
09
1A
0@
#30000
1%
14
19
0A
#40000
0%
0$
1#
04
03
12
1:
0;
09
1A
1@
0=
#50000
1%
14
19
0A
#60000
0%
1$
04
13
1;
09
1A
0@
#70000
1%
14
19
0A
1<
15
1&
#80000
0%
0$
0#
1"
04
03
02
11
17
0:
0;
09
1A
1@
1=
0>
0<
05
0&
#90000
1%
14
19
0A
#100000
0%
1$
04
13
1;
09
1A
0@
#110000
1%
14
19
0A
1<
15
1&
#120000
0%
0$
1#
04
03
12
1:
0;
09
1A
1@
0=
0<
05
0&
#130000
1%
14
19
0A
1<
15
1&
#140000
0%
1$
04
13
1;
09
1A
0@
#150000
1%
14
19
0A
#160000
0%
0$
0#
0"
1!
04
03
02
01
10
18
07
0:
0;
09
1A
1@
1=
1>
0?
0<
05
0&
#170000
1%
14
19
0A
#180000
0%
1$
04
13
1;
09
1A
0@
#190000
1%
14
19
0A
1<
15
1&
#200000
0%
0$
1#
04
03
12
1:
0;
09
1A
1@
0=
0<
05
0&
#210000
1%
14
19
0A
1<
15
1&
#220000
0%
1$
04
13
1;
09
1A
0@
#230000
1%
14
19
0A
#240000
0%
0$
0#
1"
04
03
02
11
17
0:
0;
09
1A
1@
1=
0>
0<
05
0&
#250000
1%
14
19
0A
1<
15
1&
#260000
0%
1$
04
13
1;
09
1A
0@
#270000
1%
14
19
0A
#280000
0%
0$
1#
04
03
12
1:
0;
09
1A
1@
0=
#290000
1%
14
19
0A
#300000
0%
1$
04
13
1;
09
1A
0@
#310000
1%
14
19
0A
#320000
0%
0$
0#
0"
0!
04
03
02
01
00
08
07
0:
0;
09
1A
1@
1=
1>
1?
0<
05
0&
#330000
1%
14
19
0A
#340000
0%
1$
04
13
1;
09
1A
0@
#350000
1%
14
19
0A
#360000
0%
0$
1#
04
03
12
1:
0;
09
1A
1@
0=
#370000
1%
14
19
0A
#380000
0%
1$
04
13
1;
09
1A
0@
#390000
1%
14
19
0A
1<
15
1&
#400000
0%
0$
0#
1"
04
03
02
11
17
0:
0;
09
1A
1@
1=
0>
0<
05
0&
#410000
1%
14
19
0A
#420000
0%
1$
04
13
1;
09
1A
0@
#430000
1%
14
19
0A
1<
15
1&
#440000
0%
0$
1#
04
03
12
1:
0;
09
1A
1@
0=
0<
05
0&
#450000
1%
14
19
0A
1<
15
1&
#460000
0%
1$
04
13
1;
09
1A
0@
#470000
1%
14
19
0A
#480000
0%
0$
0#
0"
1!
04
03
02
01
10
18
07
0:
0;
09
1A
1@
1=
1>
0?
0<
05
0&
#490000
1%
14
19
0A
#500000
0%
1$
04
13
1;
09
1A
0@
#510000
1%
14
19
0A
1<
15
1&
#520000
0%
0$
1#
04
03
12
1:
0;
09
1A
1@
0=
0<
05
0&
#530000
1%
14
19
0A
1<
15
1&
#540000
0%
1$
04
13
1;
09
1A
0@
#550000
1%
14
19
0A
#560000
0%
0$
0#
1"
04
03
02
11
17
0:
0;
09
1A
1@
1=
0>
0<
05
0&
#570000
1%
14
19
0A
1<
15
1&
#580000
0%
1$
04
13
1;
09
1A
0@
#590000
1%
14
19
0A
#600000
0%
0$
1#
04
03
12
1:
0;
09
1A
1@
0=
#610000
1%
14
19
0A
#620000
0%
1$
04
13
1;
09
1A
0@
#630000
1%
14
19
0A
#640000
0%
0$
0#
0"
0!
04
03
02
01
00
08
07
0:
0;
09
1A
1@
1=
1>
1?
0<
05
0&
#650000
1%
14
19
0A
#660000
0%
1$
04
13
1;
09
1A
0@
#670000
1%
14
19
0A
#680000
0%
0$
1#
04
03
12
1:
0;
09
1A
1@
0=
#690000
1%
14
19
0A
#700000
0%
1$
04
13
1;
09
1A
0@
#710000
1%
14
19
0A
1<
15
1&
#720000
0%
0$
0#
1"
04
03
02
11
17
0:
0;
09
1A
1@
1=
0>
0<
05
0&
#730000
1%
14
19
0A
#740000
0%
1$
04
13
1;
09
1A
0@
#750000
1%
14
19
0A
1<
15
1&
#760000
0%
0$
1#
04
03
12
1:
0;
09
1A
1@
0=
0<
05
0&
#770000
1%
14
19
0A
1<
15
1&
#780000
0%
1$
04
13
1;
09
1A
0@
#790000
1%
14
19
0A
#800000
0%
0$
0#
0"
1!
04
03
02
01
10
18
07
0:
0;
09
1A
1@
1=
1>
0?
0<
05
0&
#810000
1%
14
19
0A
#820000
0%
1$
04
13
1;
09
1A
0@
#830000
1%
14
19
0A
1<
15
1&
#840000
0%
0$
1#
04
03
12
1:
0;
09
1A
1@
0=
0<
05
0&
#850000
1%
14
19
0A
1<
15
1&
#860000
0%
1$
04
13
1;
09
1A
0@
#870000
1%
14
19
0A
#880000
0%
0$
0#
1"
04
03
02
11
17
0:
0;
09
1A
1@
1=
0>
0<
05
0&
#890000
1%
14
19
0A
1<
15
1&
#900000
0%
1$
04
13
1;
09
1A
0@
#910000
1%
14
19
0A
#920000
0%
0$
1#
04
03
12
1:
0;
09
1A
1@
0=
#930000
1%
14
19
0A
#940000
0%
1$
04
13
1;
09
1A
0@
#950000
1%
14
19
0A
#960000
0%
0$
0#
0"
0!
04
03
02
01
00
08
07
0:
0;
09
1A
1@
1=
1>
1?
0<
05
0&
#970000
1%
14
19
0A
#980000
0%
1$
04
13
1;
09
1A
0@
#990000
1%
14
19
0A
